<svg xmlns="http://www.w3.org/2000/svg" width="25" height="25" viewBox="0 0 25 25">
    <g fill="none" fill-rule="evenodd">
        <circle cx="12.5" cy="12.5" r="12.5" fill="#B7D9FB" opacity=".347"/>
        <path fill="#8FC2FA" d="M15.29 7.604l-4.068 6.763-2.583-1.27a1.494 1.494 0 0 0-1.921.542 1.261 1.261 0 0 0 .457 1.78l3.074 1.694a2 2 0 0 0 2.63-.644l4.596-6.906a1.728 1.728 0 0 0-.29-2.248 1.246 1.246 0 0 0-1.896.289z"/>
    </g>
</svg>
